…
## # A tibble: 30 x 5
##    name_es             porc_FDT porc_CAMBIEMOS id_distrito  year
##    <chr>                  <dbl>          <dbl> <chr>       <dbl>
##  1 CATAMARCA                 51             31 03           2021
##  2 CORRIENTES                34             59 05           2021
##  3 CHACO                     36             44 06           2021
##  4 FORMOSA                   48             29 09           2021
##  5 JUJUY                     28             46 10           2021
##  6 LA RIOJA                  52             23 12           2021
##  7 MISIONES                  17             40 14           2021
##  8 SALTA                     30             30 17           2021
##  9 SANTIAGO DEL ESTERO       56             16 22           2021
## 10 TUCUMAN                   50             35 23           2021
## # ... with 20 more rows

## # A tibble: 24 x 5
##    name_es      porc_FDT porc_CAMBIEMOS id_distrito  year
##    <chr>           <dbl>          <dbl> <chr>       <dbl>
##  1 CABA               25             48 01           2021
##  2 BUENOS AIRES       33             38 02           2021
##  3 CORDOBA            11             48 04           2021
##  4 ENTRE RIOS         30             52 08           2021
##  5 MENDOZA            25             43 13           2021
##  6 SAN JUAN           43             38 18           2021
##  7 SAN LUIS           37             47 19           2021
##  8 SANTA FE           29             40 21           2021
##  9 CABA               21             50 01           2017
## 10 BUENOS AIRES       34             32 02           2017
## # ... with 14 more rows
…
